<svg width="66" height="66" viewBox="0 0 66 66" fill="none" xmlns="http://www.w3.org/2000/svg">
<path d="M49.928 19.5937C50.5399 19.5937 51.138 19.4123 51.6468 19.0723C52.1555 18.7324 52.5521 18.2492 52.7862 17.6839C53.0204 17.1186 53.0817 16.4966 52.9623 15.8964C52.8429 15.2963 52.5483 14.745 52.1156 14.3124C51.6829 13.8797 51.1317 13.5851 50.5315 13.4657C49.9314 13.3463 49.3094 13.4076 48.7441 13.6417C48.1787 13.8759 47.6956 14.2724 47.3556 14.7812C47.0157 15.29 46.8342 15.8881 46.8342 16.5C46.8342 17.3205 47.1602 18.1074 47.7404 18.6876C48.3206 19.2678 49.1075 19.5937 49.928 19.5937ZM49.928 15.4687H50.9592C51.2327 15.4687 51.495 15.5774 51.6884 15.7708C51.8818 15.9642 51.9905 16.2265 51.9905 16.5C51.9905 16.7735 51.8818 17.0358 51.6884 17.2292C51.495 17.4226 51.2327 17.5312 50.9592 17.5312H49.928C49.6545 17.5312 49.3922 17.4226 49.1988 17.2292C49.0054 17.0358 48.8967 16.7735 48.8967 16.5C48.8967 16.2265 49.0054 15.9642 49.1988 15.7708C49.3922 15.5774 49.6545 15.4687 49.928 15.4687Z" fill="#85C418"/>
<path d="M5.46564 57.2829C4.96342 57.6954 4.89948 57.75 4.31476 57.75H3.09376C2.82026 57.75 2.55795 57.8587 2.36456 58.0521C2.17116 58.2454 2.06251 58.5078 2.06251 58.7813C2.06251 59.0548 2.17116 59.3171 2.36456 59.5105C2.55795 59.7039 2.82026 59.8125 3.09376 59.8125H4.12501V62.9063C4.12501 63.1798 4.23366 63.4421 4.42706 63.6355C4.62045 63.8289 4.88276 63.9375 5.15626 63.9375C5.42976 63.9375 5.69207 63.8289 5.88546 63.6355C6.07886 63.4421 6.18751 63.1798 6.18751 62.9063V59.3237C6.39463 59.1854 6.59333 59.035 6.78254 58.873C6.92176 58.7586 7.07851 58.6286 7.27032 58.4843L9.18432 57.0488L11.0478 58.9122L10.7384 59.3845C10.5246 59.705 10.201 59.9363 9.82867 60.035C9.45629 60.1338 9.06067 60.0932 8.71614 59.9208C8.59493 59.8603 8.46299 59.8242 8.32784 59.8146C8.1927 59.8051 8.05699 59.8223 7.92848 59.8652C7.79997 59.9081 7.68117 59.9759 7.57886 60.0647C7.47655 60.1535 7.39273 60.2616 7.3322 60.3828C7.20994 60.6276 7.18993 60.9109 7.27658 61.1704C7.36322 61.43 7.54941 61.6445 7.7942 61.7667C8.58846 62.1632 9.50012 62.2563 10.3581 62.0285C11.2161 61.8006 11.9615 61.2676 12.4544 60.5292L12.5173 60.4354C13.0903 61.1315 13.4045 62.0046 13.4063 62.9063C13.4063 63.1798 13.5149 63.4421 13.7083 63.6355C13.9017 63.8289 14.164 63.9375 14.4375 63.9375C14.711 63.9375 14.9733 63.8289 15.1667 63.6355C15.3601 63.4421 15.4688 63.1798 15.4688 62.9063C15.4711 62.1167 15.3167 61.3344 15.0145 60.6049C14.7123 59.8754 14.2684 59.2132 13.7084 58.6565L12.3327 57.2808C14.112 56.7383 15.827 56.0043 17.4477 55.0914C17.9958 55.4921 18.6615 55.6994 19.3402 55.6808C20.0189 55.6621 20.6721 55.4185 21.1974 54.9883L25.6926 51.2923C26.1342 50.9283 26.4649 50.4478 26.6472 49.9053C26.8295 49.3629 26.856 48.7801 26.7238 48.2233C27.4113 47.5915 28.0933 46.9459 28.7698 46.2866C29.3435 46.5124 29.9719 46.5599 30.573 46.4228C31.1741 46.2857 31.7198 45.9705 32.1389 45.5183L36.0865 41.25C36.5194 40.7804 36.7944 40.1871 36.873 39.5533C36.9516 38.9195 36.8299 38.277 36.5248 37.7159C36.9672 37.1745 37.4004 36.6372 37.819 36.1082C38.4386 36.3386 39.1162 36.3622 39.7503 36.1753C40.3844 35.9885 40.941 35.6013 41.3366 35.0718L44.8099 30.4033C45.2169 29.8545 45.4286 29.1854 45.4115 28.5024C45.3943 27.8194 45.1491 27.1617 44.715 26.6341C45.309 25.7441 45.7359 25.08 45.9938 24.6747C46.6443 25.1044 47.2503 25.5981 47.8026 26.1484L48.8967 27.2425V28.2408L47.4045 28.9864C47.1597 29.1086 46.9735 29.3231 46.8869 29.5827C46.8002 29.8422 46.8203 30.1255 46.9425 30.3703C47.0648 30.6151 47.2793 30.8013 47.5388 30.8879C47.7983 30.9746 48.0817 30.9546 48.3265 30.8323L49.928 30.031L51.5295 30.8323C51.6507 30.8929 51.7827 30.9289 51.9178 30.9385C52.053 30.948 52.1887 30.9308 52.3172 30.8879C52.4457 30.845 52.5645 30.7772 52.6668 30.6884C52.7691 30.5996 52.8529 30.4915 52.9135 30.3703C52.974 30.2491 53.0101 30.1172 53.0196 29.982C53.0291 29.8469 53.012 29.7112 52.9691 29.5827C52.9262 29.4542 52.8584 29.3354 52.7696 29.233C52.6808 29.1307 52.5727 29.0469 52.4515 28.9864L50.9592 28.2408V27.2425L52.0544 26.1484C53.6869 24.5118 55.7686 23.3969 58.0357 22.9453L59.0019 22.7514L59.994 23.2671L59.9662 24.9356C59.964 25.0711 59.9885 25.2056 60.0383 25.3315C60.0881 25.4575 60.1623 25.5724 60.2565 25.6697C60.3507 25.767 60.4632 25.8448 60.5875 25.8986C60.7118 25.9524 60.8455 25.9812 60.9809 25.9834H60.9974C61.2679 25.9834 61.5276 25.8772 61.7205 25.6876C61.9134 25.4979 62.0241 25.2401 62.0287 24.9697L62.0586 23.1794L63.5085 22.1286C63.6199 22.0498 63.7146 21.9497 63.787 21.834C63.8595 21.7184 63.9082 21.5895 63.9305 21.4549C63.9528 21.3203 63.9481 21.1826 63.9168 21.0497C63.8854 20.9169 63.828 20.7917 63.7479 20.6812C63.6678 20.5707 63.5666 20.4773 63.4501 20.4062C63.3336 20.3351 63.2042 20.2879 63.0693 20.2672C62.9344 20.2466 62.7968 20.2529 62.6643 20.2858C62.5319 20.3187 62.4073 20.3776 62.2978 20.459L60.9479 21.4376L60.06 20.9756C58.9981 18.1288 58.9846 14.9968 60.0219 12.1409L60.9252 11.7181L62.2339 12.7493C62.3389 12.8405 62.4613 12.9094 62.5937 12.952C62.7261 12.9946 62.8657 13.01 63.0042 12.9972C63.1426 12.9845 63.2771 12.9438 63.3995 12.8778C63.5218 12.8117 63.6296 12.7216 63.7162 12.6128C63.8029 12.5041 63.8666 12.3789 63.9036 12.2449C63.9407 12.1108 63.9502 11.9707 63.9316 11.8328C63.9131 11.695 63.8669 11.5624 63.7958 11.4429C63.7246 11.3234 63.6301 11.2195 63.5178 11.1375L62.1143 10.0248L62.1617 8.23454C62.1689 7.96118 62.0672 7.69615 61.8791 7.49774C61.6909 7.29932 61.4316 7.18376 61.1583 7.17647H61.1294C60.8605 7.17638 60.6022 7.28134 60.4095 7.46898C60.2169 7.65661 60.1052 7.91208 60.0982 8.18091L60.0538 9.84844L59.1205 10.2847L58.277 10.1434C55.3829 9.66439 52.7719 8.12241 50.9551 5.81935V4.76232L52.4515 4.02188C52.6962 3.89962 52.8824 3.68513 52.9691 3.42559C53.0557 3.16606 53.0357 2.88273 52.9135 2.63794C52.7912 2.39316 52.5767 2.20696 52.3172 2.12032C52.0576 2.03368 51.7743 2.05369 51.5295 2.17594L49.928 2.97722L48.3265 2.17594C48.0817 2.05369 47.7983 2.03368 47.5388 2.12032C47.2793 2.20696 47.0648 2.39316 46.9425 2.63794C46.8203 2.88273 46.8002 3.16606 46.8869 3.42559C46.9735 3.68513 47.1597 3.89962 47.4045 4.02188L48.8967 4.76747V5.81832C47.0803 8.12176 44.4691 9.66383 41.5749 10.1423L40.7591 10.2785L39.7155 9.82163L39.632 8.15513C39.6252 8.0197 39.5918 7.88694 39.5338 7.76441C39.4757 7.64189 39.394 7.532 39.2935 7.44103C39.1929 7.35006 39.0754 7.27978 38.9477 7.23421C38.82 7.18864 38.6846 7.16867 38.5492 7.17544C38.4137 7.18221 38.281 7.21559 38.1584 7.27367C38.0359 7.33175 37.926 7.4134 37.8351 7.51395C37.7441 7.6145 37.6738 7.73198 37.6283 7.85969C37.5827 7.9874 37.5627 8.12283 37.5695 8.25826L37.6592 10.0464L36.2825 11.1911C36.1784 11.2778 36.0924 11.3841 36.0294 11.504C35.9665 11.6239 35.9277 11.7551 35.9154 11.8899C35.9031 12.0248 35.9175 12.1608 35.9577 12.2901C35.998 12.4194 36.0633 12.5396 36.15 12.6436C36.2366 12.7477 36.343 12.8337 36.4629 12.8967C36.5828 12.9597 36.7139 12.9984 36.8488 13.0107C36.9837 13.023 37.1196 13.0087 37.249 12.9684C37.3783 12.9282 37.4984 12.8628 37.6025 12.7762L38.8843 11.7088L39.8186 12.1213C40.8619 14.9765 40.8524 18.1103 39.7918 20.9591L38.9225 21.4211L37.5643 20.4518C37.4541 20.3731 37.3294 20.3169 37.1975 20.2864C37.0655 20.2559 36.9288 20.2516 36.7953 20.274C36.6617 20.2963 36.5338 20.3447 36.4189 20.4164C36.304 20.4881 36.2044 20.5818 36.1257 20.692C36.047 20.8023 35.9909 20.9269 35.9603 21.0589C35.9298 21.1908 35.9256 21.3275 35.9479 21.4611C35.9702 21.5947 36.0186 21.7226 36.0904 21.8374C36.1621 21.9523 36.2558 22.0519 36.366 22.1306L37.8232 23.1701L37.8654 24.9604C37.8719 25.2296 37.9834 25.4856 38.1761 25.6736C38.3688 25.8617 38.6274 25.967 38.8967 25.9669H38.9204C39.0559 25.9638 39.1894 25.9341 39.3133 25.8794C39.4372 25.8247 39.5492 25.7461 39.6428 25.6481C39.7363 25.5502 39.8097 25.4347 39.8586 25.3084C39.9075 25.1821 39.9311 25.0473 39.9279 24.9119L39.8888 23.2433L40.8251 22.7463L41.812 22.9433C42.6217 23.1059 43.4119 23.3537 44.1695 23.6827C43.9075 24.0952 43.4868 24.7345 42.9258 25.5668C42.3589 25.4544 41.7718 25.5048 41.2324 25.7122C40.6929 25.9195 40.2232 26.2752 39.8774 26.7383L36.4042 31.4067C36.0487 31.8855 35.8405 32.4575 35.805 33.0527C35.7694 33.6479 35.9081 34.2406 36.2041 34.7583C35.7971 35.2719 35.3794 35.7909 34.9511 36.3155C34.3768 36.0875 33.7469 36.0385 33.1442 36.1749C32.5415 36.3113 31.9941 36.6266 31.5738 37.0796L27.6293 41.3531C27.1946 41.8246 26.9191 42.4208 26.8418 43.0574C26.7644 43.694 26.8891 44.3388 27.1982 44.9006C26.6592 45.4321 26.1137 45.9532 25.5616 46.464C25.0132 46.057 24.3446 45.8449 23.6619 45.8614C22.9792 45.8778 22.3216 46.1218 21.7934 46.5548L17.2982 50.2497C16.8471 50.6218 16.5119 51.1152 16.3323 51.6716C16.1527 52.2281 16.1361 52.8243 16.2845 53.3899C14.5128 54.3814 12.6114 55.1208 10.6353 55.5864L9.54629 54.4933C8.63471 53.5858 7.4377 53.021 6.15767 52.8944C4.87765 52.7677 3.59316 53.087 2.52142 53.7983C2.29386 53.9501 2.13593 54.186 2.08235 54.4543C2.02878 54.7225 2.08397 55.001 2.23576 55.2286C2.38756 55.4562 2.62353 55.6141 2.89177 55.6677C3.16001 55.7212 3.43855 55.666 3.6661 55.5143C4.2636 55.1188 4.96774 54.9156 5.68404 54.9318C6.40034 54.9481 7.09455 55.183 7.67354 55.605L6.03385 56.8353C5.81214 57.0003 5.63064 57.1498 5.46564 57.2829ZM49.928 11.3438C50.9478 11.3438 51.9447 11.6462 52.7926 12.2127C53.6406 12.7793 54.3015 13.5846 54.6917 14.5268C55.082 15.469 55.1841 16.5057 54.9852 17.5059C54.7862 18.5062 54.2951 19.4249 53.574 20.146C52.8529 20.8671 51.9341 21.3582 50.9339 21.5572C49.9337 21.7561 48.8969 21.654 47.9548 21.2638C47.0126 20.8735 46.2073 20.2126 45.6407 19.3647C45.0741 18.5167 44.7717 17.5198 44.7717 16.5C44.7734 15.133 45.3171 13.8224 46.2838 12.8558C47.2504 11.8892 48.561 11.3454 49.928 11.3438Z" fill="#85C418"/>
</svg>
