<svg width="66" height="66" viewBox="0 0 66 66" fill="none" xmlns="http://www.w3.org/2000/svg">
<g clip-path="url(#clip0)">
<path d="M63.8573 6.33768C61 3.48041 56.3509 3.48067 53.4941 6.33768L19.7975 40.0342L20.7844 41.021L0 61.8051L13.6137 61.2544C16.1113 61.1533 18.4604 60.1242 20.2281 58.3567L29.174 49.4106L30.1607 50.3973L63.8572 16.7009C66.7143 13.8438 66.7143 9.19483 63.8573 6.33768ZM28.4934 36.8205L33.3743 41.7015L30.1607 44.9151L25.2797 40.0342L28.4934 36.8205ZM17.487 55.6154C16.4099 56.6925 14.9786 57.3196 13.4569 57.3812L9.75675 57.5308L23.5255 43.7621L26.4329 46.6695L17.487 55.6154ZM61.1162 13.9597L36.1155 38.9605L31.2345 34.0795L56.2351 9.07879C57.5808 7.73337 59.7703 7.73311 61.1159 9.07879C62.4616 10.4245 62.4619 12.6141 61.1162 13.9597Z" fill="#85C418"/>
</g>
<defs>
<clipPath id="clip0">
<rect width="66" height="66" fill="white"/>
</clipPath>
</defs>
</svg>
