<svg width="66" height="66" viewBox="0 0 66 66" fill="none" xmlns="http://www.w3.org/2000/svg">
<g clip-path="url(#clip0)">
<path d="M31.625 66C31.6223 66 31.6195 66 31.6168 66C30.8578 65.9945 30.2445 65.373 30.25 64.6167C30.2528 64.2097 30.3243 54.6315 30.5883 52.085C30.9458 48.664 32.7278 46.0597 35.607 44.7535C40.1555 42.6882 45.6335 45.0395 48.3395 50.215C49.5055 52.4452 49.7943 54.8872 49.192 57.4777C48.862 58.894 48.51 59.972 48.081 60.874C47.157 62.821 46.728 64.8807 46.7225 64.9C46.5713 65.6452 45.837 66.1182 45.1 65.9725C44.3548 65.8212 43.8763 65.0952 44.0275 64.3527C44.0468 64.2537 44.5225 61.952 45.595 59.6942C45.936 58.9765 46.2275 58.0745 46.5108 56.8535C46.9645 54.8982 46.7665 53.1437 45.9003 51.491C43.879 47.6245 39.941 45.8095 36.7373 47.256C34.7573 48.1552 33.5748 49.9235 33.319 52.3682C33.0715 54.7827 33 64.537 33 64.6332C32.9945 65.3895 32.3785 66 31.625 66Z" fill="#85C418" stroke="#85C418"/>
<path d="M52.2748 46.75C50.7513 46.75 49.3185 45.9332 48.4028 44.528C46.1808 41.1207 46.1973 35.7967 48.4385 32.406C49.3543 31.02 50.7265 30.1785 52.3435 30.25C53.878 30.2857 55.2448 31.1272 56.0918 32.5572C58.2973 36.2642 58.3138 39.9822 56.1468 44.2557C55.4015 45.7297 54.0375 46.6592 52.5058 46.7417C52.4288 46.75 52.3518 46.75 52.2748 46.75ZM52.2445 33C51.6725 33 51.1225 33.3355 50.7348 33.924C49.1095 36.3852 49.0985 40.5542 50.71 43.0265C51.128 43.6672 51.7825 44.0302 52.36 43.9972C52.9155 43.967 53.3913 43.6177 53.6965 43.0127C55.4208 39.611 55.4318 36.8225 53.7323 33.9597C53.372 33.352 52.855 33.011 52.2803 32.9972C52.2665 33 52.2528 33 52.2445 33Z" fill="#85C418" stroke="#85C418"/>
<path d="M23.375 66C22.616 66 22 65.384 22 64.625V58.7923C22 51.348 19.36 44.1155 14.564 38.423L0.32174 21.5105C-0.16776 20.9303 -0.09351 20.0613 0.48674 19.5718C1.06699 19.0795 1.93599 19.1593 2.42549 19.7368L16.6677 36.6493C21.879 42.8395 24.75 50.7045 24.75 58.7923V64.625C24.75 65.384 24.134 66 23.375 66Z" fill="#85C418" stroke="#85C418"/>
<path d="M60.621 66C60.5522 66 60.4835 65.9945 60.4147 65.9835C59.664 65.8707 59.147 65.1695 59.2625 64.4187L63.0025 39.7347C64.218 31.7047 60.83 23.5207 54.1612 18.3727L33.5362 2.46123C32.9367 1.99648 32.824 1.13298 33.2887 0.530729C33.7507 -0.0687707 34.6115 -0.181521 35.2192 0.283229L55.8442 16.1947C63.305 21.9505 67.0917 31.13 65.725 40.1445L61.985 64.8285C61.8777 65.5132 61.292 66 60.621 66Z" fill="#85C418" stroke="#85C418"/>
<path d="M30.2473 41.25C28.5203 41.25 26.8455 40.7192 25.421 39.6907C23.2788 38.1397 22 35.6372 22 33C22 32.109 22.1403 31.2317 22.4208 30.3902C22.9323 28.8475 22.6573 27.3515 21.692 26.3862L0.401516 5.0985C-0.134734 4.56225 -0.134734 3.6905 0.401516 3.15425C0.937766 2.618 1.80952 2.618 2.34577 3.15425L23.6363 24.4447C25.3523 26.1607 25.8748 28.7072 25.0305 31.2592C24.8435 31.8175 24.75 32.406 24.75 33C24.75 34.76 25.6025 36.4265 27.0325 37.4605C28.49 38.5137 30.3545 38.7777 32.1393 38.1892C34.3448 37.4632 35.86 35.1532 35.7418 32.703C35.7253 32.3702 35.6813 32.0732 35.607 31.801C35.475 31.3225 35.6098 30.811 35.959 30.4617C36.3083 30.1097 36.8143 29.9722 37.2983 30.1097C37.6448 30.2032 38.038 30.25 38.5 30.25C40.2188 30.25 41.811 29.4662 42.8615 28.0995C43.9148 26.7327 44.2558 24.9562 43.7993 23.2292C43.3483 21.527 42.053 20.1272 40.414 19.5717C39.1298 19.1345 37.8125 19.1372 36.597 19.5827C34.2458 20.4435 31.7763 19.9677 30.1565 18.348L14.1515 2.3485C13.6153 1.81225 13.6153 0.940499 14.1515 0.404249C14.6878 -0.132001 15.5595 -0.132001 16.0958 0.404249L32.098 16.4065C32.9643 17.2727 34.2953 17.4982 35.651 17.0032C37.4605 16.3405 39.413 16.3267 41.294 16.9702C43.7938 17.82 45.771 19.9485 46.453 22.528C47.1295 25.0882 46.6125 27.7282 45.0368 29.777C43.4638 31.8257 41.0795 33 38.5 33C38.4835 36.5007 36.2258 39.7375 33.0028 40.799C32.0898 41.1015 31.1603 41.25 30.2473 41.25Z" fill="#85C418" stroke="#85C418"/>
</g>
<defs>
<clipPath id="clip0">
<rect width="66" height="66" fill="white"/>
</clipPath>
</defs>
</svg>
