<svg width="60" height="60" viewBox="0 0 60 60" fill="none" xmlns="http://www.w3.org/2000/svg">
<g clip-path="url(#clip0)">
<path d="M41.25 60C40.93 60 40.61 59.8775 40.365 59.635L35.465 54.735C29.0325 48.3025 27.605 38.595 31.9225 30.5825L33.4975 27.645C34.2825 26.1775 35.9175 25.4175 37.54 25.74L41.69 26.5725C45.11 27.26 47.9725 29.4425 49.5425 32.5625L52.3675 38.1875C52.675 38.805 52.425 39.555 51.81 39.865C51.195 40.17 50.44 39.9275 50.13 39.31L47.305 33.685C46.0875 31.2575 43.86 29.5575 41.1975 29.0225L37.0475 28.19C36.495 28.0825 35.96 28.3375 35.7 28.825L34.125 31.765C30.335 38.8 31.585 47.3175 37.2325 52.965L42.1325 57.865C42.62 58.3525 42.62 59.145 42.1325 59.6325C41.89 59.8775 41.57 60 41.25 60Z" fill="#85C418" stroke="#85C418"/>
<path d="M56.25 35C55.83 35 55.4175 34.7875 55.1825 34.4L52.9325 30.7C49.865 25.71 45.7975 22.9075 40.125 21.8825C38.2575 21.545 36.9375 19.7975 37.115 17.9025C37.685 11.86 35.1975 6 30.4725 2.2275C29.9325 1.7975 29.8425 1.01 30.275 0.469999C30.7075 -0.0675013 31.4925 -0.155001 32.03 0.272499C37.42 4.5725 40.25 11.2525 39.605 18.1375C39.5475 18.75 39.97 19.3125 40.57 19.42C46.99 20.58 51.5975 23.75 55.065 29.395L57.3175 33.1C57.6775 33.69 57.49 34.4575 56.9 34.8175C56.6975 34.9425 56.4725 35 56.25 35Z" fill="#85C418" stroke="#85C418"/>
<path d="M28.75 60C28.43 60 28.11 59.8775 27.865 59.635L25.465 57.235C23.0125 54.785 21.22 51.7275 20.28 48.3975C20.1675 47.9975 19.8725 47.6675 19.4925 47.515C19.305 47.4375 18.9275 47.3475 18.5475 47.5775C17.1025 48.4375 15.9425 49.6825 15.1925 51.1825L12.3675 56.81C12.055 57.425 11.3 57.67 10.6875 57.365C10.0725 57.055 9.82249 56.305 10.13 55.6875L12.955 50.0625C13.92 48.135 15.41 46.5325 17.2675 45.4275C18.2225 44.86 19.37 44.77 20.4175 45.19C21.515 45.6275 22.3625 46.57 22.6875 47.715C23.51 50.635 25.0825 53.315 27.2325 55.465L29.6325 57.865C30.12 58.3525 30.12 59.145 29.6325 59.6325C29.39 59.8775 29.07 60 28.75 60Z" fill="#85C418" stroke="#85C418"/>
<path d="M6.24999 52.5C6.02749 52.5 5.80249 52.4425 5.59999 52.3175C5.00999 51.9575 4.82249 51.19 5.18249 50.6L7.43249 46.9C9.98749 42.7475 13.91 39.5775 18.475 37.9625C19.53 37.59 20.3475 36.7875 20.72 35.7675C21.0525 34.86 21.455 33.96 21.9175 33.0875L25.22 26.955C29.2425 19.49 27.4225 10.1125 20.895 4.65752L17.9525 2.21252C17.42 1.77002 17.345 0.982515 17.7875 0.452515C18.23 -0.0774848 19.0225 -0.149985 19.5475 0.287515L22.4975 2.73752C29.9375 8.95252 32.01 19.6375 27.4275 28.1425L24.1275 34.2675C23.72 35.0325 23.3625 35.8275 23.0725 36.6225C22.445 38.3475 21.0725 39.695 19.3125 40.32C15.2825 41.745 11.82 44.5425 9.56749 48.205L7.31749 51.9C7.08249 52.2875 6.66999 52.5 6.24999 52.5Z" fill="#85C418" stroke="#85C418"/>
<path d="M13.75 20C13.51 20 13.27 19.9325 13.0575 19.79C12.4825 19.4075 12.3275 18.6325 12.71 18.0575C15.9675 13.1725 22.1325 11.06 27.6975 12.915L28.52 13.19C29.175 13.4075 29.5275 14.1175 29.31 14.77C29.09 15.4275 28.3825 15.7825 27.7275 15.56L26.905 15.285C22.405 13.7825 17.4225 15.4925 14.7875 19.4425C14.5475 19.805 14.1525 20 13.75 20Z" fill="#85C418" stroke="#85C418"/>
<path d="M46.25 50C45.9025 50 45.5575 49.855 45.31 49.5725C42.765 46.6675 39.0925 45 35.2325 45H31.25C30.56 45 30 44.44 30 43.75C30 43.06 30.56 42.5 31.25 42.5H35.2325C39.815 42.5 44.1725 44.4775 47.19 47.9275C47.6475 48.4475 47.5925 49.235 47.0725 49.6925C46.835 49.8975 46.5425 50 46.25 50Z" fill="#85C418" stroke="#85C418"/>
</g>
<defs>
<clipPath id="clip0">
<rect width="60" height="60" fill="white"/>
</clipPath>
</defs>
</svg>
