<svg width="32" height="32" viewBox="0 0 32 32" fill="none" xmlns="http://www.w3.org/2000/svg">
<path fill-rule="evenodd" clip-rule="evenodd" d="M30 16.0845C30 8.35322 23.7313 2.08447 16 2.08447C8.26875 2.08447 2 8.35322 2 16.0845C2 23.072 7.11875 28.8638 13.8125 29.9151V20.1326H10.2569V16.0845H13.8125V12.9995C13.8125 9.49135 15.9031 7.55197 19.1006 7.55197C20.6325 7.55197 22.235 7.82572 22.235 7.82572V11.2713H20.4688C18.7306 11.2713 18.1869 12.3501 18.1869 13.4588V16.0851H22.0694L21.4494 20.1332H18.1869V29.9163C24.8812 28.8657 30 23.0738 30 16.0845Z" fill="#4267B2"/>
</svg>
